19

H          1.36250        0.29046       -0.95429
C          0.59661       -0.39235       -0.56761
N          1.29162       -1.60834       -0.08692
H          1.85158       -1.39571        0.73425
H          0.58184       -2.28428        0.20290
C         -0.23251        0.30425        0.54078
H         -1.02289       -0.37724        0.88311
C         -0.91737        1.57130        0.00890
H         -0.18325        2.28242       -0.38484
H         -1.48030        2.07199        0.80423
H         -1.62930        1.33793       -0.78879
C          0.61887        0.68514        1.75851
H          1.47314        1.30496        1.46596
H          0.99750       -0.20033        2.27783
H          0.02600        1.24986        2.48657
C         -0.30572       -0.78164       -1.74873
O         -0.40370       -0.19025       -2.81266
O         -1.08052       -1.86236       -1.49470
H         -1.57493       -1.98703       -2.33113
