26

N          1.05294       -2.96300       -0.97944
C          1.61442       -1.64074       -1.31490
C          3.14384       -1.72803       -1.31349
O          3.83767       -2.31949       -0.49953
O          3.71237       -1.01736       -2.30831
C          1.18624       -0.55104       -0.32184
H          1.77415        0.35717       -0.51081
H          1.43317       -0.86129        0.70241
C         -0.30201       -0.20171       -0.40927
H         -0.91796       -1.08218       -0.19324
H         -0.54493        0.11096       -1.43257
C         -0.66865        0.91282        0.57180
H         -0.06787        1.80712        0.36960
H         -0.44921        0.58155        1.59312
N         -2.08118        1.23510        0.43146
H         -2.32188        1.44789       -0.53491
C         -2.68456        2.15961        1.20902
N         -3.42949        3.05900        0.67895
H         -3.78832        3.67702        1.40810
N         -2.46743        2.04143        2.53043
H         -2.37825        1.07426        2.81882
H         -3.12535        2.53807        3.11618
H          0.05032       -2.89897       -0.82341
H          1.46989       -3.28497       -0.10329
H          1.28583       -1.38571       -2.32902
H          4.67191       -1.18365       -2.19612
