42

N 3.172650 1.158150 -0.091750
 C 2.661670 0.720320 1.186010
 C 4.319310 0.592420 -0.730030
 C 2.022520 1.869220 -0.546800
 C 1.371430 1.524040 0.796590
 S 2.726250 -1.055630 0.800650
 C 4.013050 -0.911950 -0.524410
 C 5.582970 1.094230 -0.065350
 O 1.808010 2.362920 -1.621370
 N 0.157150 0.737590 0.700950
 C 5.251220 -1.729180 -0.120010
 C 3.417690 -1.501520 -1.818570
 O 6.606230 1.140770 -0.918550
 O 5.725380 1.409900 1.089310
 C -1.089320 1.350010 0.758160
 C -2.302300 0.458200 0.549410
 O -1.198550 2.534930 0.962880
 O -3.488750 1.214030 0.570630
 C -4.669390 0.591500 0.273390
 C -4.840650 -0.792400 0.119560
 C -5.795230 1.391650 0.039160
 C -6.075680 -1.347530 -0.224010
 C -7.036700 0.854540 -0.304820
 C -7.182530 -0.525800 -0.436120
 H 3.243540 1.090740 2.021200
 H 4.338650 0.879090 -1.775540
 H 1.266050 2.425010 1.391380
 H 0.173810 -0.258570 0.476750
 H 6.050240 -1.641960 -0.891010
 H 5.677540 -1.390890 0.851760
 H 5.011180 -2.812290 -0.014010
 H 2.503040 -0.952100 -2.141730
 H 4.151860 -1.445410 -2.654670
 H 3.141380 -2.574270 -1.697000
 H 7.290690 1.464080 -0.310040
 H -2.210490 -0.029150 -0.449090 
 H -2.341920 -0.286470 1.377750
 H -4.001640 -1.489990 0.269500
 H -5.697030 2.486560 0.128720
 H -6.178110 -2.440450 -0.331850
 H -7.899450 1.519810 -0.477370
 H -8.158110 -0.961110 -0.710270
